10:04:08 981	瑞芯微开发工具 v2.4.2.0 for android start run
10:11:19 135	Layer<3-8>:测试设备开始
10:11:19 166	Layer<3-8>:测试设备成功
10:11:19 166	Layer<3-8>:校验芯片开始
10:11:19 182	Layer<3-8>:校验芯片成功
10:11:19 182	Layer<3-8>:获取FlashInfo开始
10:11:19 197	<LAYER 3-8> INFO:FlashInfo: 00 F0 D1 01 00 04 04 00 28 00 01
10:11:19 197	<LAYER 3-8> INFO:GetFlashInfo-->Emmc storage.
10:11:19 213	Layer<3-8>:获取FlashInfo成功
10:11:19 213	Layer<3-8>:准备IDB开始
10:11:19 229	<LAYER 3-8> INFO:CS(1)		(14910MB)		(SAMSUNG)
10:11:19 244	Layer<3-8>:准备IDB成功
10:11:19 260	Layer<3-8>:下载IDB开始
10:11:19 431	Layer<3-8>:下载IDB成功
10:11:19 447	Layer<3-8>:重启设备开始
10:11:20 467	Layer<3-8>:重启设备成功
10:11:20 485	Layer<3-8>:等待Loader开始
10:11:21 035	Layer<3-8>:等待Loader成功
10:11:21 045	Layer<3-8>:测试设备开始
10:11:21 055	Layer<3-8>:测试设备成功
10:11:21 055	Layer<3-8>: Download parameter...
10:11:21 116	Layer<3-8>: Download uboot...
10:11:21 818	Layer<3-8>: Download trust...
10:11:22 395	Layer<3-8>: Download misc...
10:11:22 426	Layer<3-8>: Download resource...
10:11:22 582	Layer<3-8>: Download kernel...
10:11:25 156	Layer<3-8>: Download boot...
10:11:25 515	Layer<3-8>: Download recovery...
10:11:26 576	Layer<3-8>: DownloadSparse system...
10:13:42 544	Layer<3-8>: RunProc is ending, ret=1
11:17:12 887	Layer<3-7>:测试设备开始
11:17:12 903	Layer<3-7>:测试设备成功
11:17:12 903	Layer<3-7>:校验芯片开始
11:17:12 903	Layer<3-7>:校验芯片成功
11:17:12 918	Layer<3-7>:获取FlashInfo开始
11:17:12 918	<LAYER 3-7> INFO:FlashInfo: 00 00 E9 00 00 04 04 00 28 00 01
11:17:12 934	<LAYER 3-7> INFO:GetFlashInfo-->Emmc storage.
11:17:12 934	Layer<3-7>:获取FlashInfo成功
11:17:12 950	Layer<3-7>:准备IDB开始
11:17:12 950	<LAYER 3-7> INFO:CS(1)		(7456MB)		(SAMSUNG)
11:17:12 965	Layer<3-7>:准备IDB成功
11:17:12 965	Layer<3-7>:下载IDB开始
11:17:13 527	Layer<3-7>:下载IDB成功
11:17:13 542	Layer<3-7>:重启设备开始
11:17:14 546	Layer<3-7>:重启设备成功
11:17:14 561	Layer<3-7>:等待Loader开始
11:17:16 719	Layer<3-7>:等待Loader成功
11:17:16 729	Layer<3-7>:测试设备开始
11:17:16 739	Layer<3-7>:测试设备成功
11:17:16 739	Layer<3-7>:下载固件开始
11:17:16 754	<LAYER 3-7> INFO:Start download image,total=492912140,band=64
11:17:16 770	<LAYER 3-7> INFO:Start to download misc,offset=0x4000,size=49152
11:17:16 786	<LAYER 3-7> INFO:Start to download resource,offset=0x6000,size=441856
11:17:16 801	<LAYER 3-7> INFO:Start to download kernel,offset=0xe000,size=6238772
11:17:17 129	<LAYER 3-7> INFO:Start to download boot,offset=0x16000,size=1336404
11:17:17 207	<LAYER 3-7> INFO:Start to download recovery,offset=0x26000,size=9175040
11:17:17 690	<LAYER 3-7> INFO:Start to download system,offset=0x92000,size=458108928
11:17:40 627	<LAYER 3-7> INFO:Start to download backup,offset=0x36000,size=17555460
11:17:41 563	<LAYER 3-7> INFO:Start to check misc,offset=0x4000,size=49152
11:17:41 563	<LAYER 3-7> INFO:Start to check resource,offset=0x6000,size=441856
11:17:41 594	<LAYER 3-7> INFO:Start to check kernel,offset=0xe000,size=6238772
11:17:41 797	<LAYER 3-7> INFO:Start to check boot,offset=0x16000,size=1336404
11:17:41 843	<LAYER 3-7> INFO:Start to check recovery,offset=0x26000,size=9175040
11:17:42 171	<LAYER 3-7> INFO:Start to check system,offset=0x92000,size=458108928
11:17:57 057	<LAYER 3-7> INFO:Start to check backup,offset=0x36000,size=17555460
11:17:57 635	Layer<3-7>:下载固件成功
11:17:57 650	Layer<3-7>:重启设备开始
11:17:58 663	Layer<3-7>:重启设备成功
14:39:53 601	Layer<3-8>:测试设备开始
14:39:53 612	Layer<3-8>:测试设备成功
14:39:53 629	Layer<3-8>: Download resource...
14:39:53 762	Layer<3-8>: Download kernel...
14:39:56 117	Layer<3-8>: RunProc is ending, ret=1
14:40:31 269	Layer<3-8>:测试设备开始
14:40:31 278	Layer<3-8>:测试设备成功
14:40:31 291	Layer<3-8>: Download resource...
14:40:31 425	Layer<3-8>: Download kernel...
14:40:33 819	Layer<3-8>: RunProc is ending, ret=1
14:41:01 731	Layer<3-8>:测试设备开始
14:41:01 741	Layer<3-8>:测试设备成功
14:41:01 755	Layer<3-8>: Download resource...
14:41:01 889	Layer<3-8>: Download kernel...
14:41:04 221	Layer<3-8>: RunProc is ending, ret=1
14:42:54 375	Layer<3-8>:测试设备开始
14:42:54 388	Layer<3-8>:测试设备成功
14:42:54 403	Layer<3-8>: Download resource...
14:42:54 536	Layer<3-8>: Download kernel...
14:42:56 892	Layer<3-8>: RunProc is ending, ret=1
14:45:04 051	Info:RunExe->cmd=netstat -ano
14:45:06 328	Info:RunExe->cmd="\\192.168.1.186\rp-share\bill\3399\sdk-7.1\RKTools\windows\AndroidTool\AndroidTool_Release_v2.42\bin\adb.exe" -s 3WR50DRVSU reboot bootloader
15:09:19 560	Layer<3-8>:测试设备开始
15:09:19 574	Layer<3-8>:测试设备成功
15:09:19 592	Layer<3-8>: Download misc...
15:09:19 634	Layer<3-8>: Download resource...
15:09:19 776	Layer<3-8>: Download kernel...
15:09:22 156	Layer<3-8>: Download boot...
15:09:22 448	Layer<3-8>: Download recovery...
15:09:23 437	Layer<3-8>: DownloadSparse system...
15:11:34 356	Layer<3-8>: RunProc is ending, ret=1
15:24:06 943	Layer<3-8>:测试设备开始
15:24:06 952	Layer<3-8>:测试设备成功
15:24:06 958	Layer<3-8>:校验芯片开始
15:24:06 964	Layer<3-8>:校验芯片成功
15:24:06 969	Layer<3-8>:获取FlashInfo开始
15:24:06 974	<LAYER 3-8> INFO:FlashInfo: 00 F0 D1 01 00 04 04 00 28 00 01
15:24:06 979	<LAYER 3-8> INFO:GetFlashInfo-->Emmc storage.
15:24:06 985	Layer<3-8>:获取FlashInfo成功
15:24:06 990	Layer<3-8>:准备IDB开始
15:24:06 996	<LAYER 3-8> INFO:CS(1)		(14910MB)		(SAMSUNG)
15:24:07 005	Layer<3-8>:准备IDB成功
15:24:07 011	Layer<3-8>:下载IDB开始
15:24:07 159	Layer<3-8>:下载IDB成功
15:24:07 167	Layer<3-8>:重启设备开始
15:24:08 183	Layer<3-8>:重启设备成功
15:24:08 197	Layer<3-8>:等待Loader开始
15:24:08 846	Layer<3-8>:等待Loader成功
15:24:08 862	Layer<3-8>:测试设备开始
15:24:08 884	Layer<3-8>:测试设备成功
15:24:08 896	Layer<3-8>: Download parameter...
15:24:08 949	Layer<3-8>: Download uboot...
15:24:09 490	Layer<3-8>: Download trust...
15:24:10 020	Layer<3-8>: Download misc...
15:24:10 049	Layer<3-8>: Download resource...
15:24:10 212	Layer<3-8>: Download kernel...
15:24:12 627	Layer<3-8>: Download boot...
15:24:12 930	Layer<3-8>: Download recovery...
15:24:13 898	Layer<3-8>: RunProc is ending, ret=1
15:25:25 486	Layer<3-8>:测试设备开始
15:25:25 501	Layer<3-8>:测试设备成功
15:25:25 511	Layer<3-8>:校验芯片开始
15:25:25 520	Layer<3-8>:校验芯片成功
15:25:25 530	Layer<3-8>:获取FlashInfo开始
15:25:25 536	<LAYER 3-8> INFO:FlashInfo: 00 F0 D1 01 00 04 04 00 28 00 01
15:25:25 542	<LAYER 3-8> INFO:GetFlashInfo-->Emmc storage.
15:25:25 547	Layer<3-8>:获取FlashInfo成功
15:25:25 553	Layer<3-8>:准备IDB开始
15:25:25 557	<LAYER 3-8> INFO:CS(1)		(14910MB)		(SAMSUNG)
15:25:25 567	Layer<3-8>:准备IDB成功
15:25:25 573	Layer<3-8>:下载IDB开始
15:25:25 722	Layer<3-8>:下载IDB成功
15:25:25 732	Layer<3-8>:重启设备开始
15:25:26 741	Layer<3-8>:重启设备成功
15:25:26 746	Layer<3-8>:等待Loader开始
15:25:27 401	Layer<3-8>:等待Loader成功
15:25:27 411	Layer<3-8>:测试设备开始
15:25:27 420	Layer<3-8>:测试设备成功
15:25:27 428	Layer<3-8>: Download parameter...
15:25:27 475	Layer<3-8>: Download uboot...
15:25:28 038	Layer<3-8>: Download trust...
15:25:28 572	Layer<3-8>: Download misc...
15:25:28 595	Layer<3-8>: Download resource...
15:25:28 746	Layer<3-8>: Download kernel...
15:25:31 187	Layer<3-8>: Download boot...
15:25:31 497	Layer<3-8>: Download recovery...
15:25:32 502	Layer<3-8>: RunProc is ending, ret=1
15:29:16 639	Layer<3-8>:测试设备开始
15:29:16 649	Layer<3-8>:测试设备成功
15:29:16 659	Layer<3-8>:校验芯片开始
15:29:16 665	Layer<3-8>:校验芯片成功
15:29:16 672	Layer<3-8>:获取FlashInfo开始
15:29:16 678	<LAYER 3-8> INFO:FlashInfo: 00 F0 D1 01 00 04 04 00 28 00 01
15:29:16 683	<LAYER 3-8> INFO:GetFlashInfo-->Emmc storage.
15:29:16 690	Layer<3-8>:获取FlashInfo成功
15:29:16 697	Layer<3-8>:准备IDB开始
15:29:16 702	<LAYER 3-8> INFO:CS(1)		(14910MB)		(SAMSUNG)
15:29:16 713	Layer<3-8>:准备IDB成功
15:29:16 721	Layer<3-8>:下载IDB开始
15:29:16 875	Layer<3-8>:下载IDB成功
15:29:16 886	Layer<3-8>:重启设备开始
15:29:17 894	Layer<3-8>:重启设备成功
15:29:17 901	Layer<3-8>:等待Loader开始
15:29:18 587	Layer<3-8>:等待Loader成功
15:29:18 592	Layer<3-8>:测试设备开始
15:29:18 598	Layer<3-8>:测试设备成功
15:29:18 604	Layer<3-8>: Download parameter...
15:29:18 655	Layer<3-8>: Download uboot...
15:29:19 200	Layer<3-8>: Download trust...
15:29:19 749	Layer<3-8>: Download misc...
15:29:19 780	Layer<3-8>: Download resource...
15:29:20 248	Layer<3-8>: Download kernel...
15:29:22 687	Layer<3-8>: Download boot...
15:29:22 976	Layer<3-8>: Download recovery...
15:29:24 013	Layer<3-8>: RunProc is ending, ret=1
15:36:59 004	Layer<3-8>:测试设备开始
15:36:59 014	Layer<3-8>:测试设备成功
15:36:59 021	Layer<3-8>:校验芯片开始
15:36:59 026	Layer<3-8>:校验芯片成功
15:36:59 031	Layer<3-8>:获取FlashInfo开始
15:36:59 035	<LAYER 3-8> INFO:FlashInfo: 00 F0 D1 01 00 04 04 00 28 00 01
15:36:59 039	<LAYER 3-8> INFO:GetFlashInfo-->Emmc storage.
15:36:59 044	Layer<3-8>:获取FlashInfo成功
15:36:59 048	Layer<3-8>:准备IDB开始
15:36:59 052	<LAYER 3-8> INFO:CS(1)		(14910MB)		(SAMSUNG)
15:36:59 060	Layer<3-8>:准备IDB成功
15:36:59 065	Layer<3-8>:下载IDB开始
15:36:59 205	Layer<3-8>:下载IDB成功
15:36:59 215	Layer<3-8>:重启设备开始
15:37:00 224	Layer<3-8>:重启设备成功
15:37:00 232	Layer<3-8>:等待Loader开始
15:37:00 915	Layer<3-8>:等待Loader成功
15:37:00 920	Layer<3-8>:测试设备开始
15:37:00 925	Layer<3-8>:测试设备成功
15:37:00 930	Layer<3-8>: Download parameter...
15:37:00 977	Layer<3-8>: Download uboot...
15:37:01 532	Layer<3-8>: Download trust...
15:37:02 087	Layer<3-8>: Download misc...
15:37:02 120	Layer<3-8>: Download resource...
15:37:02 267	Layer<3-8>: Download kernel...
15:37:04 694	Layer<3-8>: Download boot...
15:37:05 005	Layer<3-8>: Download recovery...
15:37:06 047	Layer<3-8>: RunProc is ending, ret=1
15:44:41 333	Layer<3-8>:测试设备开始
15:44:41 425	Layer<3-8>:测试设备成功
15:44:41 435	Layer<3-8>:校验芯片开始
15:44:41 500	Layer<3-8>:校验芯片成功
15:44:41 545	Layer<3-8>:获取FlashInfo开始
15:44:41 551	<LAYER 3-8> INFO:FlashInfo: 00 F0 D1 01 00 04 04 00 28 00 01
15:44:41 557	<LAYER 3-8> INFO:GetFlashInfo-->Emmc storage.
15:44:41 564	Layer<3-8>:获取FlashInfo成功
15:44:41 573	Layer<3-8>:准备IDB开始
15:44:41 645	<LAYER 3-8> INFO:CS(1)		(14910MB)		(SAMSUNG)
15:44:41 682	Layer<3-8>:准备IDB成功
15:44:41 696	Layer<3-8>:下载IDB开始
15:44:41 861	Layer<3-8>:下载IDB成功
15:44:41 938	Layer<3-8>:重启设备开始
15:44:42 976	Layer<3-8>:重启设备成功
15:44:42 996	Layer<3-8>:等待Loader开始
15:44:43 702	Layer<3-8>:等待Loader成功
15:44:43 789	Layer<3-8>:测试设备开始
15:44:43 804	Layer<3-8>:测试设备成功
15:44:43 820	Layer<3-8>: Download parameter...
15:44:44 019	Layer<3-8>: Download uboot...
15:44:45 087	Layer<3-8>: Download trust...
15:44:46 256	Layer<3-8>: Download misc...
15:44:46 404	Layer<3-8>: Download resource...
15:44:46 767	Layer<3-8>: Download kernel...
15:44:52 295	Layer<3-8>: Download boot...
15:44:53 123	Layer<3-8>: Download recovery...
15:44:55 397	Layer<3-8>: RunProc is ending, ret=1
15:46:07 818	Layer<3-8>:测试设备开始
15:46:07 827	Layer<3-8>:测试设备成功
15:46:07 885	Layer<3-8>: Download resource...
15:46:07 997	Layer<3-8>: Download kernel...
15:46:12 976	Layer<3-8>: RunProc is ending, ret=1
15:51:18 776	Info:RunExe->cmd=netstat -ano
15:51:20 846	ERROR:GetAdbSerialno->AdbCreateInterfaceByName failed,err=5,dev=\\?\USB#VID_2207&PID_0006#5&3B038E4E&0&8#{f72fe0d4-cbcb-407d-8814-9ed673d0dd6b}!
15:51:20 853	ERROR:AdbToRockusb->GetAdbSerialno failed!
15:51:20 859	Info:RunExe->cmd="\\192.168.1.186\rp-share\bill\3399\sdk-7.1\RKTools\windows\AndroidTool\AndroidTool_Release_v2.42\bin\adb.exe" reboot bootloader
15:51:27 129	Layer<3-8>:测试设备开始
15:51:27 138	Layer<3-8>:测试设备成功
15:51:27 152	Layer<3-8>: Download resource...
15:51:27 228	Layer<3-8>: Download kernel...
15:51:29 565	Layer<3-8>: RunProc is ending, ret=1
15:55:19 246	Info:RunExe->cmd=netstat -ano
15:55:21 106	ERROR:GetAdbSerialno->AdbCreateInterfaceByName failed,err=5,dev=\\?\USB#VID_2207&PID_0006#5&3B038E4E&0&8#{f72fe0d4-cbcb-407d-8814-9ed673d0dd6b}!
15:55:21 115	ERROR:AdbToRockusb->GetAdbSerialno failed!
15:55:21 121	Info:RunExe->cmd="\\192.168.1.186\rp-share\bill\3399\sdk-7.1\RKTools\windows\AndroidTool\AndroidTool_Release_v2.42\bin\adb.exe" reboot bootloader
15:55:53 890	Layer<3-8>:测试设备开始
15:55:53 901	Layer<3-8>:测试设备成功
15:55:53 913	Layer<3-8>: Download resource...
15:55:53 983	Layer<3-8>: Download kernel...
15:55:56 363	Layer<3-8>: RunProc is ending, ret=1
16:02:40 741	Info:RunExe->cmd=netstat -ano
16:02:42 592	ERROR:GetAdbSerialno->AdbCreateInterfaceByName failed,err=5,dev=\\?\USB#VID_2207&PID_0006#5&3B038E4E&0&8#{f72fe0d4-cbcb-407d-8814-9ed673d0dd6b}!
16:02:42 601	ERROR:AdbToRockusb->GetAdbSerialno failed!
16:02:42 607	Info:RunExe->cmd="\\192.168.1.186\rp-share\bill\3399\sdk-7.1\RKTools\windows\AndroidTool\AndroidTool_Release_v2.42\bin\adb.exe" reboot bootloader
16:02:49 939	Layer<3-8>:测试设备开始
16:02:49 949	Layer<3-8>:测试设备成功
16:02:49 961	Layer<3-8>: Download resource...
16:02:50 022	Layer<3-8>: Download kernel...
16:02:52 416	Layer<3-8>: RunProc is ending, ret=1
16:04:01 599	Layer<3-8>: RunProc is ending, ret=0
16:04:02 494	Info:RunExe->cmd=netstat -ano
16:04:04 556	ERROR:GetAdbSerialno->AdbCreateInterfaceByName failed,err=5,dev=\\?\USB#VID_2207&PID_0006#5&3B038E4E&0&8#{f72fe0d4-cbcb-407d-8814-9ed673d0dd6b}!
16:04:04 565	ERROR:AdbToRockusb->GetAdbSerialno failed!
16:04:04 571	Info:RunExe->cmd="\\192.168.1.186\rp-share\bill\3399\sdk-7.1\RKTools\windows\AndroidTool\AndroidTool_Release_v2.42\bin\adb.exe" reboot bootloader
16:04:11 919	Layer<>: RunProc is ending, ret=0
16:04:12 765	Layer<3-8>:测试设备开始
16:04:12 776	Layer<3-8>:测试设备成功
16:04:12 789	Layer<3-8>: Download resource...
16:04:12 930	Layer<3-8>: Download kernel...
16:04:15 298	Layer<3-8>: RunProc is ending, ret=1
16:08:13 372	Info:RunExe->cmd=netstat -ano
16:08:15 207	ERROR:GetAdbSerialno->AdbCreateInterfaceByName failed,err=5,dev=\\?\USB#VID_2207&PID_0006#5&3B038E4E&0&8#{f72fe0d4-cbcb-407d-8814-9ed673d0dd6b}!
16:08:15 212	ERROR:AdbToRockusb->GetAdbSerialno failed!
16:08:15 216	Info:RunExe->cmd="\\192.168.1.186\rp-share\bill\3399\sdk-7.1\RKTools\windows\AndroidTool\AndroidTool_Release_v2.42\bin\adb.exe" reboot bootloader
16:08:26 812	Layer<3-8>:测试设备开始
16:08:26 822	Layer<3-8>:测试设备成功
16:08:26 836	Layer<3-8>: Download resource...
16:08:26 974	Layer<3-8>: Download kernel...
16:08:29 340	Layer<3-8>: RunProc is ending, ret=1
16:11:52 399	Info:RunExe->cmd=netstat -ano
16:11:54 467	ERROR:GetAdbSerialno->AdbCreateInterfaceByName failed,err=5,dev=\\?\USB#VID_2207&PID_0006#5&3B038E4E&0&8#{f72fe0d4-cbcb-407d-8814-9ed673d0dd6b}!
16:11:54 474	ERROR:AdbToRockusb->GetAdbSerialno failed!
16:11:54 480	Info:RunExe->cmd="\\192.168.1.186\rp-share\bill\3399\sdk-7.1\RKTools\windows\AndroidTool\AndroidTool_Release_v2.42\bin\adb.exe" reboot bootloader
16:12:01 193	Layer<>: RunProc is ending, ret=0
16:12:02 039	Layer<3-8>:测试设备开始
16:12:02 051	Layer<3-8>:测试设备成功
16:12:02 071	Layer<3-8>: Download resource...
16:12:02 321	Layer<3-8>: Download kernel...
16:12:06 698	Layer<3-8>: RunProc is ending, ret=1
16:17:27 977	Info:RunExe->cmd=netstat -ano
16:17:29 832	ERROR:GetAdbSerialno->AdbCreateInterfaceByName failed,err=5,dev=\\?\USB#VID_2207&PID_0006#5&3B038E4E&0&8#{f72fe0d4-cbcb-407d-8814-9ed673d0dd6b}!
16:17:29 843	ERROR:AdbToRockusb->GetAdbSerialno failed!
16:17:29 849	Info:RunExe->cmd="\\192.168.1.186\rp-share\bill\3399\sdk-7.1\RKTools\windows\AndroidTool\AndroidTool_Release_v2.42\bin\adb.exe" reboot bootloader
16:17:37 428	Layer<3-8>:测试设备开始
16:17:37 435	Layer<3-8>:测试设备成功
16:17:37 442	Layer<3-8>:校验芯片开始
16:17:37 449	Layer<3-8>:校验芯片成功
16:17:37 454	Layer<3-8>:获取FlashInfo开始
16:17:37 459	<LAYER 3-8> INFO:FlashInfo: 00 F0 D1 01 00 04 04 00 28 00 01
16:17:37 463	<LAYER 3-8> INFO:GetFlashInfo-->Emmc storage.
16:17:37 470	Layer<3-8>:获取FlashInfo成功
16:17:37 476	Layer<3-8>:准备IDB开始
16:17:37 481	<LAYER 3-8> INFO:CS(1)		(14910MB)		(SAMSUNG)
16:17:37 489	Layer<3-8>:准备IDB成功
16:17:37 495	Layer<3-8>:下载IDB开始
16:17:37 647	Layer<3-8>:下载IDB成功
16:17:37 658	Layer<3-8>:重启设备开始
16:17:38 674	Layer<3-8>:重启设备成功
16:17:38 688	Layer<3-8>:等待Loader开始
16:17:39 372	Layer<3-8>:等待Loader成功
16:17:39 398	Layer<3-8>:测试设备开始
16:17:39 408	Layer<3-8>:测试设备成功
16:17:39 417	Layer<3-8>: Download parameter...
16:17:39 466	Layer<3-8>: Download uboot...
16:17:40 038	Layer<3-8>: Download trust...
16:17:40 593	Layer<3-8>: Download misc...
16:17:40 623	Layer<3-8>: Download resource...
16:17:41 106	Layer<3-8>: Download kernel...
16:17:43 560	Layer<3-8>: Download boot...
16:17:43 855	Layer<3-8>: Download recovery...
16:17:44 855	Layer<3-8>: DownloadSparse system...
16:19:56 047	Layer<3-8>: RunProc is ending, ret=1
16:21:20 004	Layer<3-8>:测试设备开始
16:21:20 015	Layer<3-8>:测试设备成功
16:21:20 033	Layer<3-8>: Download misc...
16:21:20 059	Layer<3-8>: Download resource...
16:21:20 194	Layer<3-8>: Download kernel...
16:21:22 543	Layer<3-8>: RunProc is ending, ret=1
16:22:49 238	Info:RunExe->cmd=netstat -ano
16:22:51 708	ERROR:GetAdbSerialno->AdbCreateInterfaceByName failed,err=5,dev=\\?\USB#VID_2207&PID_0006#5&3B038E4E&0&8#{f72fe0d4-cbcb-407d-8814-9ed673d0dd6b}!
16:22:51 720	ERROR:AdbToRockusb->GetAdbSerialno failed!
16:22:51 724	Info:RunExe->cmd="\\192.168.1.186\rp-share\bill\3399\sdk-7.1\RKTools\windows\AndroidTool\AndroidTool_Release_v2.42\bin\adb.exe" reboot bootloader
16:23:00 989	Layer<3-8>:测试设备开始
16:23:00 996	Layer<3-8>:测试设备成功
16:23:01 007	Layer<3-8>: Download resource...
16:23:01 143	Layer<3-8>: Download kernel...
16:23:03 512	Layer<3-8>: RunProc is ending, ret=1
16:23:25 888	Info:RunExe->cmd=netstat -ano
16:23:28 166	ERROR:GetAdbSerialno->AdbCreateInterfaceByName failed,err=5,dev=\\?\USB#VID_2207&PID_0006#5&3B038E4E&0&8#{f72fe0d4-cbcb-407d-8814-9ed673d0dd6b}!
16:23:28 175	ERROR:AdbToRockusb->GetAdbSerialno failed!
16:23:28 183	Info:RunExe->cmd="\\192.168.1.186\rp-share\bill\3399\sdk-7.1\RKTools\windows\AndroidTool\AndroidTool_Release_v2.42\bin\adb.exe" reboot bootloader
16:23:36 474	Layer<3-8>:测试设备开始
16:23:36 484	Layer<3-8>:测试设备成功
16:23:36 492	Layer<3-8>:获取FlashInfo开始
16:23:36 498	<LAYER 3-8> INFO:FlashInfo: 00 F0 D1 01 00 04 04 00 28 00 01
16:23:36 504	<LAYER 3-8> INFO:GetFlashInfo-->Emmc storage.
16:23:36 514	Layer<3-8>:获取FlashInfo成功
16:23:36 522	Layer<3-8>:准备IDB开始
16:23:36 527	<LAYER 3-8> INFO:CS(1)		(14910MB)		(SAMSUNG)
16:23:36 538	Layer<3-8>:准备IDB成功
16:23:36 545	Layer<3-8>:擦除IDB开始
16:23:36 551	<LAYER 3-8> INFO:EraseIDB-->Erase count=12.
16:23:36 563	Layer<3-8>:擦除IDB成功
16:23:36 578	<LAYER 3-8> INFO:BufferWriteBack-->Crc is zero
16:23:36 584	Layer<3-8>:重启设备开始
16:23:37 595	Layer<3-8>:重启设备成功
16:23:37 603	Layer<3-8>:等待Maskrom开始
16:23:38 283	Layer<3-8>:等待Maskrom成功
16:23:38 291	Layer<3-8>:下载Boot开始
16:23:48 505	<LAYER 3-8> ERROR:Boot_VendorRequest-->DeviceIoControl failed,Total(12290),Sended(12288),bRet(1),err(0)
16:23:48 533	<LAYER 3-8> ERROR:DownloadBoot-->Boot_VendorRequest471 failed,index(0)
16:23:48 546	Error:Layer<3-8>:下载Boot失败
16:25:29 331	Layer<3-8>:下载Boot开始
16:25:39 393	<LAYER 3-8> ERROR:Boot_VendorRequest-->DeviceIoControl failed,Total(67586),Sended(0),bRet(1),err(0)
16:25:39 401	<LAYER 3-8> ERROR:DownloadBoot-->Boot_VendorRequest471 failed,index(0)
16:25:39 408	Error:Layer<3-8>:下载Boot失败
16:25:54 294	Layer<3-8>:下载Boot开始
16:25:57 396	Layer<3-8>:下载Boot成功
16:25:57 404	Layer<3-8>:等待Maskrom开始
16:25:58 500	Layer<3-8>:等待Maskrom成功
16:25:58 505	Layer<3-8>:测试设备开始
16:25:58 509	Layer<3-8>:测试设备成功
16:25:58 513	Layer<3-8>:获取FlashInfo开始
16:25:58 516	<LAYER 3-8> INFO:FlashInfo: 00 F0 D1 01 00 04 04 00 28 00 01
16:25:58 519	<LAYER 3-8> INFO:GetFlashInfo-->Emmc storage.
16:25:58 524	Layer<3-8>:获取FlashInfo成功
16:25:58 529	Layer<3-8>:准备IDB开始
16:25:58 532	<LAYER 3-8> INFO:CS(1)		(14910MB)		(SAMSUNG)
16:25:58 562	<LAYER 3-8> INFO:FindBackupBuffer-->No Found Tag
16:25:58 568	<LAYER 3-8> INFO:FindBackupBuffer-->No Found Tag
16:25:58 573	<LAYER 3-8> INFO:FindBackupBuffer-->No Found Tag
16:25:58 578	<LAYER 3-8> INFO:FindBackupBuffer-->No Found Tag
16:25:58 582	<LAYER 3-8> INFO:FindBackupBuffer-->No Found Tag
16:25:58 589	Layer<3-8>:准备IDB成功
16:25:58 595	Layer<3-8>:擦除Flash开始
16:26:20 998	Layer<3-8>:擦除Flash成功
16:26:21 027	<LAYER 3-8> INFO:BufferWriteBack-->Crc is zero
16:26:21 034	Layer<3-8>:重启设备开始
16:26:22 044	Layer<3-8>:重启设备成功
16:40:52 632	Layer<3-8>:下载Boot开始
16:41:03 517	<LAYER 3-8> ERROR:Boot_VendorRequest-->DeviceIoControl failed,Total(67586),Sended(65536),bRet(1),err(0)
16:41:03 525	<LAYER 3-8> ERROR:DownloadBoot-->Boot_VendorRequest471 failed,index(0)
16:41:03 535	Error:Layer<3-8>:下载Boot失败
16:41:03 553	Layer<3-8>: RunProc is ending, ret=0
16:41:08 046	Layer<3-8>:下载Boot开始
16:41:12 625	<LAYER 3-8> ERROR:Boot_VendorRequest-->DeviceIoControl failed,Total(67586),Sended(0),bRet(0),err(1167)
16:41:12 631	<LAYER 3-8> ERROR:DownloadBoot-->Boot_VendorRequest471 failed,index(0)
16:41:12 638	Error:Layer<3-8>:下载Boot失败
16:41:19 378	Layer<3-8>:下载Boot开始
16:41:22 481	Layer<3-8>:下载Boot成功
16:41:22 487	Layer<3-8>:等待Maskrom开始
16:41:23 557	Layer<3-8>:等待Maskrom成功
16:41:23 714	Layer<3-8>:测试设备开始
16:41:23 721	Layer<3-8>:测试设备成功
16:41:23 727	Layer<3-8>:获取FlashInfo开始
16:41:23 734	<LAYER 3-8> INFO:FlashInfo: 00 F0 D1 01 00 04 04 00 28 00 01
16:41:23 741	<LAYER 3-8> INFO:GetFlashInfo-->Emmc storage.
16:41:23 750	Layer<3-8>:获取FlashInfo成功
16:41:23 759	Layer<3-8>:准备IDB开始
16:41:23 765	<LAYER 3-8> INFO:CS(1)		(14910MB)		(SAMSUNG)
16:41:23 793	<LAYER 3-8> INFO:FindBackupBuffer-->No Found Tag
16:41:23 799	<LAYER 3-8> INFO:FindBackupBuffer-->No Found Tag
16:41:23 804	<LAYER 3-8> INFO:FindBackupBuffer-->No Found Tag
16:41:23 810	<LAYER 3-8> INFO:FindBackupBuffer-->No Found Tag
16:41:23 815	<LAYER 3-8> INFO:FindBackupBuffer-->No Found Tag
16:41:23 821	Layer<3-8>:准备IDB成功
16:41:23 826	Layer<3-8>:擦除Flash开始
16:41:44 910	Layer<3-8>:擦除Flash成功
16:41:44 939	<LAYER 3-8> INFO:BufferWriteBack-->Crc is zero
16:41:44 945	Layer<3-8>:重启设备开始
16:41:45 952	Layer<3-8>:重启设备成功
16:41:50 260	Layer<3-8>:下载Boot开始
16:42:01 140	<LAYER 3-8> ERROR:Boot_VendorRequest-->DeviceIoControl failed,Total(67586),Sended(65536),bRet(1),err(0)
16:42:01 149	<LAYER 3-8> ERROR:DownloadBoot-->Boot_VendorRequest471 failed,index(0)
16:42:01 156	Error:Layer<3-8>:下载Boot失败
16:42:01 166	Layer<3-8>: RunProc is ending, ret=0
16:42:05 688	Layer<3-8>:下载Boot开始
16:42:12 736	<LAYER 3-8> ERROR:Boot_VendorRequest-->DeviceIoControl failed,Total(67586),Sended(0),bRet(1),err(0)
16:42:12 742	<LAYER 3-8> ERROR:DownloadBoot-->Boot_VendorRequest471 failed,index(0)
16:42:12 751	Error:Layer<3-8>:下载Boot失败
16:42:12 760	Layer<3-8>: RunProc is ending, ret=0
16:42:18 164	Layer<3-8>:下载Boot开始
16:42:27 885	<LAYER 3-8> ERROR:Boot_VendorRequest-->DeviceIoControl failed,Total(53250),Sended(0),bRet(1),err(0)
16:42:27 891	<LAYER 3-8> ERROR:DownloadBoot-->Boot_VendorRequest472 failed,index(0)
16:42:27 904	Error:Layer<3-8>:下载Boot失败
16:42:27 913	Layer<3-8>: RunProc is ending, ret=0
16:42:38 500	Layer<3-8>:下载Boot开始
16:42:41 649	Layer<3-8>:下载Boot成功
16:42:41 673	Layer<3-8>:等待Maskrom开始
16:42:42 441	Layer<3-8>:等待Maskrom成功
16:42:42 451	Layer<3-8>:测试设备开始
16:42:42 459	Layer<3-8>:测试设备成功
16:42:42 467	Layer<3-8>:校验芯片开始
16:42:42 475	Layer<3-8>:校验芯片成功
16:42:42 483	Layer<3-8>:获取FlashInfo开始
16:42:42 491	<LAYER 3-8> INFO:FlashInfo: 00 F0 D1 01 00 04 04 00 28 00 01
16:42:42 523	<LAYER 3-8> INFO:GetFlashInfo-->Emmc storage.
16:42:42 529	Layer<3-8>:获取FlashInfo成功
16:42:42 536	Layer<3-8>:准备IDB开始
16:42:42 543	<LAYER 3-8> INFO:CS(1)		(14910MB)		(SAMSUNG)
16:42:42 574	<LAYER 3-8> INFO:FindBackupBuffer-->No Found Tag
16:42:42 581	<LAYER 3-8> INFO:FindBackupBuffer-->No Found Tag
16:42:42 588	<LAYER 3-8> INFO:FindBackupBuffer-->No Found Tag
16:42:42 595	<LAYER 3-8> INFO:FindBackupBuffer-->No Found Tag
16:42:42 602	<LAYER 3-8> INFO:FindBackupBuffer-->No Found Tag
16:42:42 608	Layer<3-8>:准备IDB成功
16:42:42 615	Layer<3-8>:下载IDB开始
16:42:42 853	Layer<3-8>:下载IDB成功
16:42:42 862	Layer<3-8>:重启设备开始
16:42:43 869	Layer<3-8>:重启设备成功
16:42:43 881	Layer<3-8>:等待Loader开始
16:42:44 629	Layer<3-8>:等待Loader成功
16:42:44 635	Layer<3-8>:测试设备开始
16:42:44 642	Layer<3-8>:测试设备成功
16:42:44 651	Layer<3-8>: Download parameter...
16:42:44 710	Layer<3-8>: Download uboot...
16:42:45 267	Layer<3-8>: Download trust...
16:42:46 482	Layer<3-8>: Download misc...
16:42:46 521	Layer<3-8>: Download resource...
16:42:46 663	Layer<3-8>: Download kernel...
16:42:49 010	Layer<3-8>: Download boot...
16:42:49 284	Layer<3-8>: Download recovery...
16:42:50 251	Layer<3-8>: DownloadSparse system...
16:45:03 747	Layer<3-8>: RunProc is ending, ret=1
16:58:33 313	Info:RunExe->cmd=netstat -ano
16:58:34 957	ERROR:GetAdbSerialno->AdbCreateInterfaceByName failed,err=5,dev=\\?\USB#VID_2207&PID_0011&MI_01#7&2520BE34&0&0001#{f72fe0d4-cbcb-407d-8814-9ed673d0dd6b}!
16:58:34 964	ERROR:AdbToRockusb->GetAdbSerialno failed!
16:58:34 971	Info:RunExe->cmd="\\192.168.1.186\rp-share\bill\3399\sdk-7.1\RKTools\windows\AndroidTool\AndroidTool_Release_v2.42\bin\adb.exe" reboot bootloader
16:58:46 130	Layer<2-1-4>:测试设备开始
16:58:46 138	Layer<2-1-4>:测试设备成功
16:58:46 147	Layer<2-1-4>: Download resource...
16:58:46 279	Layer<2-1-4>: Download kernel...
16:58:48 584	Layer<2-1-4>: RunProc is ending, ret=1
16:59:22 239	Layer<2-1-4>:测试设备开始
16:59:22 250	Layer<2-1-4>:测试设备成功
16:59:22 258	Layer<2-1-4>: Download resource...
16:59:22 383	Layer<2-1-4>: Download kernel...
16:59:24 682	Layer<2-1-4>: RunProc is ending, ret=1
16:59:57 796	Layer<2-1-4>:测试设备开始
16:59:57 804	Layer<2-1-4>:测试设备成功
16:59:57 815	Layer<2-1-4>: Download resource...
16:59:57 944	Layer<2-1-4>: Download kernel...
17:00:00 308	Layer<2-1-4>: RunProc is ending, ret=1
17:00:54 719	Info:RunExe->cmd=netstat -ano
17:00:57 368	ERROR:GetAdbSerialno->AdbCreateInterfaceByName failed,err=5,dev=\\?\USB#VID_2207&PID_0011&MI_01#7&2520BE34&0&0001#{f72fe0d4-cbcb-407d-8814-9ed673d0dd6b}!
17:00:57 375	ERROR:AdbToRockusb->GetAdbSerialno failed!
17:00:57 379	Info:RunExe->cmd="\\192.168.1.186\rp-share\bill\3399\sdk-7.1\RKTools\windows\AndroidTool\AndroidTool_Release_v2.42\bin\adb.exe" reboot bootloader
17:01:04 594	Layer<2-1-4>:测试设备开始
17:01:04 601	Layer<2-1-4>:测试设备成功
17:01:04 615	Layer<2-1-4>: Download resource...
17:01:04 742	Layer<2-1-4>: Download kernel...
17:01:07 043	Layer<2-1-4>: RunProc is ending, ret=1
17:05:52 392	Info:RunExe->cmd=netstat -ano
17:05:54 028	ERROR:GetAdbSerialno->AdbCreateInterfaceByName failed,err=5,dev=\\?\USB#VID_2207&PID_0011&MI_01#7&2520BE34&0&0001#{f72fe0d4-cbcb-407d-8814-9ed673d0dd6b}!
17:05:54 033	ERROR:AdbToRockusb->GetAdbSerialno failed!
17:05:54 037	Info:RunExe->cmd="\\192.168.1.186\rp-share\bill\3399\sdk-7.1\RKTools\windows\AndroidTool\AndroidTool_Release_v2.42\bin\adb.exe" reboot bootloader
17:06:03 474	Layer<2-1-4>:测试设备开始
17:06:03 480	Layer<2-1-4>:测试设备成功
17:06:03 489	Layer<2-1-4>: Download resource...
17:06:03 618	Layer<2-1-4>: Download kernel...
17:06:05 919	Layer<2-1-4>: RunProc is ending, ret=1
17:10:13 568	Layer<2-1-4>:测试设备开始
17:10:13 576	Layer<2-1-4>:测试设备成功
17:10:13 586	Layer<2-1-4>: Download resource...
17:10:13 711	Layer<2-1-4>: Download kernel...
17:10:16 019	Layer<2-1-4>: RunProc is ending, ret=1
17:13:56 669	Info:RunExe->cmd=netstat -ano
17:13:58 709	ERROR:GetAdbSerialno->AdbCreateInterfaceByName failed,err=5,dev=\\?\USB#VID_2207&PID_0011&MI_01#7&2520BE34&0&0001#{f72fe0d4-cbcb-407d-8814-9ed673d0dd6b}!
17:13:58 716	ERROR:AdbToRockusb->GetAdbSerialno failed!
17:13:58 721	Info:RunExe->cmd="\\192.168.1.186\rp-share\bill\3399\sdk-7.1\RKTools\windows\AndroidTool\AndroidTool_Release_v2.42\bin\adb.exe" reboot bootloader
17:14:05 573	Layer<>: RunProc is ending, ret=0
17:14:06 234	Layer<2-1-4>:测试设备开始
17:14:06 244	Layer<2-1-4>:测试设备成功
17:14:06 255	Layer<2-1-4>: Download resource...
17:14:06 381	Layer<2-1-4>: Download kernel...
17:14:08 707	Layer<2-1-4>: RunProc is ending, ret=1
17:19:30 665	Info:RunExe->cmd=netstat -ano
17:19:33 115	ERROR:GetAdbSerialno->AdbCreateInterfaceByName failed,err=5,dev=\\?\USB#VID_2207&PID_0011&MI_01#7&2520BE34&0&0001#{f72fe0d4-cbcb-407d-8814-9ed673d0dd6b}!
17:19:33 126	ERROR:AdbToRockusb->GetAdbSerialno failed!
17:19:33 132	Info:RunExe->cmd="\\192.168.1.186\rp-share\bill\3399\sdk-7.1\RKTools\windows\AndroidTool\AndroidTool_Release_v2.42\bin\adb.exe" reboot bootloader
17:19:39 967	Layer<2-1-4>:测试设备开始
17:19:39 986	Layer<2-1-4>:测试设备成功
17:19:39 998	Layer<2-1-4>: Download resource...
17:19:40 135	Layer<2-1-4>: Download kernel...
17:19:42 447	Layer<2-1-4>: RunProc is ending, ret=1
17:20:58 620	Info:RunExe->cmd=netstat -ano
17:21:00 669	ERROR:GetAdbSerialno->AdbCreateInterfaceByName failed,err=5,dev=\\?\USB#VID_2207&PID_0011&MI_01#7&2520BE34&0&0001#{f72fe0d4-cbcb-407d-8814-9ed673d0dd6b}!
17:21:00 678	ERROR:AdbToRockusb->GetAdbSerialno failed!
17:21:00 683	Info:RunExe->cmd="\\192.168.1.186\rp-share\bill\3399\sdk-7.1\RKTools\windows\AndroidTool\AndroidTool_Release_v2.42\bin\adb.exe" reboot bootloader
17:21:08 630	Layer<2-1-4>:测试设备开始
17:21:08 637	Layer<2-1-4>:测试设备成功
17:21:08 646	Layer<2-1-4>: Download resource...
17:21:08 773	Layer<2-1-4>: Download kernel...
17:21:11 118	Layer<2-1-4>: RunProc is ending, ret=1
17:24:25 197	Info:RunExe->cmd=netstat -ano
17:24:26 848	ERROR:GetAdbSerialno->AdbCreateInterfaceByName failed,err=5,dev=\\?\USB#VID_2207&PID_0011&MI_01#7&2520BE34&0&0001#{f72fe0d4-cbcb-407d-8814-9ed673d0dd6b}!
17:24:26 854	ERROR:AdbToRockusb->GetAdbSerialno failed!
17:24:26 859	Info:RunExe->cmd="\\192.168.1.186\rp-share\bill\3399\sdk-7.1\RKTools\windows\AndroidTool\AndroidTool_Release_v2.42\bin\adb.exe" reboot bootloader
17:24:33 960	Layer<2-1-4>:测试设备开始
17:24:33 967	Layer<2-1-4>:测试设备成功
17:24:33 976	Layer<2-1-4>: Download resource...
17:24:34 106	Layer<2-1-4>: Download kernel...
17:24:36 408	Layer<2-1-4>: RunProc is ending, ret=1
17:26:43 160	Info:RunExe->cmd=netstat -ano
17:26:44 996	ERROR:GetAdbSerialno->AdbCreateInterfaceByName failed,err=5,dev=\\?\USB#VID_2207&PID_0011&MI_01#7&2520BE34&0&0001#{f72fe0d4-cbcb-407d-8814-9ed673d0dd6b}!
17:26:45 009	ERROR:AdbToRockusb->GetAdbSerialno failed!
17:26:45 017	Info:RunExe->cmd="\\192.168.1.186\rp-share\bill\3399\sdk-7.1\RKTools\windows\AndroidTool\AndroidTool_Release_v2.42\bin\adb.exe" reboot bootloader
17:26:51 940	Layer<2-1-4>:测试设备开始
17:26:51 947	Layer<2-1-4>:测试设备成功
17:26:51 956	Layer<2-1-4>: Download resource...
17:26:52 080	Layer<2-1-4>: Download kernel...
17:26:54 394	Layer<2-1-4>: RunProc is ending, ret=1
17:28:48 820	Info:RunExe->cmd=netstat -ano
17:28:51 253	ERROR:GetAdbSerialno->AdbCreateInterfaceByName failed,err=5,dev=\\?\USB#VID_2207&PID_0011&MI_01#7&2520BE34&0&0001#{f72fe0d4-cbcb-407d-8814-9ed673d0dd6b}!
17:28:51 265	ERROR:AdbToRockusb->GetAdbSerialno failed!
17:28:51 274	Info:RunExe->cmd="\\192.168.1.186\rp-share\bill\3399\sdk-7.1\RKTools\windows\AndroidTool\AndroidTool_Release_v2.42\bin\adb.exe" reboot bootloader
17:28:57 857	Layer<2-1-4>:测试设备开始
17:28:57 867	Layer<2-1-4>:测试设备成功
17:28:57 879	Layer<2-1-4>: Download resource...
17:28:58 084	Layer<2-1-4>: Download kernel...
17:29:00 397	Layer<2-1-4>: RunProc is ending, ret=1
17:29:54 396	Info:RunExe->cmd=netstat -ano
17:29:56 841	ERROR:GetAdbSerialno->AdbCreateInterfaceByName failed,err=2,dev=\\?\USB#VID_2207&PID_0011&MI_01#7&2520BE34&0&0001#{f72fe0d4-cbcb-407d-8814-9ed673d0dd6b}!
17:29:56 867	ERROR:AdbToRockusb->GetAdbSerialno failed!
17:29:56 871	Info:RunExe->cmd="\\192.168.1.186\rp-share\bill\3399\sdk-7.1\RKTools\windows\AndroidTool\AndroidTool_Release_v2.42\bin\adb.exe" reboot bootloader
17:30:01 352	* daemon not running. starting it now on port 5037 *
* daemon started successfully *
error: device not found

17:30:02 357	Info:RunExe->cmd="\\192.168.1.186\rp-share\bill\3399\sdk-7.1\RKTools\windows\AndroidTool\AndroidTool_Release_v2.42\bin\adb.exe" reboot bootloader
17:30:05 709	Layer<2-1-4>: RunProc is ending, ret=0
17:30:09 298	Info:RunExe->cmd=netstat -ano
17:30:11 964	Info:RunExe->cmd="\\192.168.1.186\rp-share\bill\3399\sdk-7.1\RKTools\windows\AndroidTool\AndroidTool_Release_v2.42\bin\adb.exe" -s C8W7KHVHZC reboot bootloader
17:30:23 358	Layer<2-1-4>:测试设备开始
17:30:23 365	Layer<2-1-4>:测试设备成功
17:30:23 376	Layer<2-1-4>: Download resource...
17:30:23 506	Layer<2-1-4>: Download kernel...
17:30:25 806	Layer<2-1-4>: RunProc is ending, ret=1
17:43:21 244	Info:RunExe->cmd=netstat -ano
17:43:22 899	ERROR:GetAdbSerialno->AdbCreateInterfaceByName failed,err=5,dev=\\?\USB#VID_2207&PID_0011&MI_01#7&2520BE34&0&0001#{f72fe0d4-cbcb-407d-8814-9ed673d0dd6b}!
17:43:22 908	ERROR:AdbToRockusb->GetAdbSerialno failed!
17:43:22 914	Info:RunExe->cmd="\\192.168.1.186\rp-share\bill\3399\sdk-7.1\RKTools\windows\AndroidTool\AndroidTool_Release_v2.42\bin\adb.exe" reboot bootloader
17:43:43 273	Layer<2-1-4>:测试设备开始
17:43:43 280	Layer<2-1-4>:测试设备成功
17:43:43 289	Layer<2-1-4>: Download resource...
17:43:43 414	Layer<2-1-4>: Download kernel...
17:43:45 763	Layer<2-1-4>: RunProc is ending, ret=1
17:50:59 706	Info:RunExe->cmd=netstat -ano
17:51:01 344	ERROR:GetAdbSerialno->AdbCreateInterfaceByName failed,err=5,dev=\\?\USB#VID_2207&PID_0011&MI_01#7&2520BE34&0&0001#{f72fe0d4-cbcb-407d-8814-9ed673d0dd6b}!
17:51:01 354	ERROR:AdbToRockusb->GetAdbSerialno failed!
17:51:01 371	Info:RunExe->cmd="\\192.168.1.186\rp-share\bill\3399\sdk-7.1\RKTools\windows\AndroidTool\AndroidTool_Release_v2.42\bin\adb.exe" reboot bootloader
17:51:08 443	Layer<2-1-4>:测试设备开始
17:51:08 448	Layer<2-1-4>:测试设备成功
17:51:08 458	Layer<2-1-4>: Download resource...
17:51:08 590	Layer<2-1-4>: Download kernel...
17:51:10 896	Layer<2-1-4>: RunProc is ending, ret=1
17:51:57 643	Info:RunExe->cmd=netstat -ano
17:51:59 679	ERROR:GetAdbSerialno->AdbCreateInterfaceByName failed,err=5,dev=\\?\USB#VID_2207&PID_0011&MI_01#7&2520BE34&0&0001#{f72fe0d4-cbcb-407d-8814-9ed673d0dd6b}!
17:51:59 686	ERROR:AdbToRockusb->GetAdbSerialno failed!
17:51:59 690	Info:RunExe->cmd="\\192.168.1.186\rp-share\bill\3399\sdk-7.1\RKTools\windows\AndroidTool\AndroidTool_Release_v2.42\bin\adb.exe" reboot bootloader
17:52:06 561	Layer<2-1-4>:测试设备开始
17:52:06 570	Layer<2-1-4>:测试设备成功
17:52:06 584	Layer<2-1-4>: Download resource...
17:52:06 713	Layer<2-1-4>: Download kernel...
17:52:09 026	Layer<2-1-4>: RunProc is ending, ret=1
17:58:11 969	Info:RunExe->cmd=netstat -ano
17:58:13 631	ERROR:GetAdbSerialno->AdbCreateInterfaceByName failed,err=5,dev=\\?\USB#VID_2207&PID_0011&MI_01#7&2520BE34&0&0001#{f72fe0d4-cbcb-407d-8814-9ed673d0dd6b}!
17:58:13 640	ERROR:AdbToRockusb->GetAdbSerialno failed!
17:58:13 651	Info:RunExe->cmd="\\192.168.1.186\rp-share\bill\3399\sdk-7.1\RKTools\windows\AndroidTool\AndroidTool_Release_v2.42\bin\adb.exe" reboot bootloader
17:58:20 907	Layer<2-1-4>:测试设备开始
17:58:20 914	Layer<2-1-4>:测试设备成功
17:58:20 924	Layer<2-1-4>: Download resource...
17:58:21 061	Layer<2-1-4>: Download kernel...
17:58:23 377	Layer<2-1-4>: RunProc is ending, ret=1
17:59:17 039	Info:RunExe->cmd=netstat -ano
17:59:19 100	ERROR:GetAdbSerialno->AdbCreateInterfaceByName failed,err=5,dev=\\?\USB#VID_2207&PID_0011&MI_01#7&2520BE34&0&0001#{f72fe0d4-cbcb-407d-8814-9ed673d0dd6b}!
17:59:19 108	ERROR:AdbToRockusb->GetAdbSerialno failed!
17:59:19 114	Info:RunExe->cmd="\\192.168.1.186\rp-share\bill\3399\sdk-7.1\RKTools\windows\AndroidTool\AndroidTool_Release_v2.42\bin\adb.exe" reboot bootloader
17:59:26 420	Layer<2-1-4>:测试设备开始
17:59:26 426	Layer<2-1-4>:测试设备成功
17:59:26 434	Layer<2-1-4>: Download resource...
17:59:26 567	Layer<2-1-4>: Download kernel...
17:59:28 883	Layer<2-1-4>: RunProc is ending, ret=1
18:01:23 172	Info:RunExe->cmd=netstat -ano
18:01:25 216	ERROR:GetAdbSerialno->AdbCreateInterfaceByName failed,err=5,dev=\\?\USB#VID_2207&PID_0011&MI_01#7&2520BE34&0&0001#{f72fe0d4-cbcb-407d-8814-9ed673d0dd6b}!
18:01:25 225	ERROR:AdbToRockusb->GetAdbSerialno failed!
18:01:25 231	Info:RunExe->cmd="\\192.168.1.186\rp-share\bill\3399\sdk-7.1\RKTools\windows\AndroidTool\AndroidTool_Release_v2.42\bin\adb.exe" reboot bootloader
18:01:54 671	Layer<2-1-4>:测试设备开始
18:01:54 681	Layer<2-1-4>:测试设备成功
18:01:54 691	Layer<2-1-4>: Download resource...
18:01:54 823	Layer<2-1-4>: Download kernel...
18:01:57 186	Layer<2-1-4>: RunProc is ending, ret=1
18:03:12 466	Info:RunExe->cmd=netstat -ano
18:03:14 730	ERROR:GetAdbSerialno->AdbCreateInterfaceByName failed,err=5,dev=\\?\USB#VID_2207&PID_0011&MI_01#7&2520BE34&0&0001#{f72fe0d4-cbcb-407d-8814-9ed673d0dd6b}!
18:03:14 738	ERROR:AdbToRockusb->GetAdbSerialno failed!
18:03:14 743	Info:RunExe->cmd="\\192.168.1.186\rp-share\bill\3399\sdk-7.1\RKTools\windows\AndroidTool\AndroidTool_Release_v2.42\bin\adb.exe" reboot bootloader
18:03:22 445	Layer<2-1-4>:测试设备开始
18:03:22 451	Layer<2-1-4>:测试设备成功
18:03:22 461	Layer<2-1-4>: Download resource...
18:03:22 591	Layer<2-1-4>: Download kernel...
18:03:24 910	Layer<2-1-4>: RunProc is ending, ret=1
18:06:07 099	Info:RunExe->cmd=netstat -ano
18:06:09 351	ERROR:GetAdbSerialno->AdbCreateInterfaceByName failed,err=5,dev=\\?\USB#VID_2207&PID_0011&MI_01#7&2520BE34&0&0001#{f72fe0d4-cbcb-407d-8814-9ed673d0dd6b}!
18:06:09 357	ERROR:AdbToRockusb->GetAdbSerialno failed!
18:06:09 362	Info:RunExe->cmd="\\192.168.1.186\rp-share\bill\3399\sdk-7.1\RKTools\windows\AndroidTool\AndroidTool_Release_v2.42\bin\adb.exe" reboot bootloader
18:06:18 477	Layer<2-1-4>:测试设备开始
18:06:18 483	Layer<2-1-4>:测试设备成功
18:06:18 492	Layer<2-1-4>: Download resource...
18:06:18 619	Layer<2-1-4>: Download kernel...
18:06:20 931	Layer<2-1-4>: RunProc is ending, ret=1
18:12:23 524	Layer<2-1-4>:测试设备开始
18:12:23 538	Layer<2-1-4>:测试设备成功
18:12:23 553	Layer<2-1-4>: Download resource...
18:12:23 682	Layer<2-1-4>: Download kernel...
18:12:25 988	Layer<2-1-4>: RunProc is ending, ret=1
18:13:48 843	Info:RunExe->cmd=netstat -ano
18:13:50 899	ERROR:GetAdbSerialno->AdbCreateInterfaceByName failed,err=5,dev=\\?\USB#VID_2207&PID_0011&MI_01#7&2520BE34&0&0001#{f72fe0d4-cbcb-407d-8814-9ed673d0dd6b}!
18:13:50 913	ERROR:AdbToRockusb->GetAdbSerialno failed!
18:13:50 921	Info:RunExe->cmd="\\192.168.1.186\rp-share\bill\3399\sdk-7.1\RKTools\windows\AndroidTool\AndroidTool_Release_v2.42\bin\adb.exe" reboot bootloader
18:13:59 268	Layer<2-1-4>:测试设备开始
18:13:59 275	Layer<2-1-4>:测试设备成功
18:13:59 284	Layer<2-1-4>: Download resource...
18:13:59 408	Layer<2-1-4>: Download kernel...
18:14:01 730	Layer<2-1-4>: RunProc is ending, ret=1
18:14:35 910	Info:RunExe->cmd=netstat -ano
18:14:37 954	ERROR:GetAdbSerialno->AdbCreateInterfaceByName failed,err=2,dev=\\?\USB#VID_2207&PID_0006#6&304CF1AC&0&4#{f72fe0d4-cbcb-407d-8814-9ed673d0dd6b}!
18:14:37 987	ERROR:AdbToRockusb->GetAdbSerialno failed!
18:14:38 008	Info:RunExe->cmd="\\192.168.1.186\rp-share\bill\3399\sdk-7.1\RKTools\windows\AndroidTool\AndroidTool_Release_v2.42\bin\adb.exe" reboot bootloader
18:14:42 497	* daemon not running. starting it now on port 5037 *
* daemon started successfully *
error: device not found

18:14:43 501	Info:RunExe->cmd="\\192.168.1.186\rp-share\bill\3399\sdk-7.1\RKTools\windows\AndroidTool\AndroidTool_Release_v2.42\bin\adb.exe" reboot bootloader
18:15:08 809	Layer<2-1-4>:测试设备开始
18:15:08 823	Layer<2-1-4>:测试设备成功
18:15:08 829	Layer<2-1-4>:校验芯片开始
18:15:08 835	Layer<2-1-4>:校验芯片成功
18:15:08 842	Layer<2-1-4>:获取FlashInfo开始
18:15:08 847	<LAYER 2-1-4> INFO:FlashInfo: 00 F0 D1 01 00 04 04 00 28 00 01
18:15:08 851	<LAYER 2-1-4> INFO:GetFlashInfo-->Emmc storage.
18:15:08 856	Layer<2-1-4>:获取FlashInfo成功
18:15:08 862	Layer<2-1-4>:准备IDB开始
18:15:08 866	<LAYER 2-1-4> INFO:CS(1)		(14910MB)		(SAMSUNG)
18:15:08 875	Layer<2-1-4>:准备IDB成功
18:15:08 879	Layer<2-1-4>:下载IDB开始
18:15:09 053	Layer<2-1-4>:下载IDB成功
18:15:09 058	Layer<2-1-4>:重启设备开始
18:15:10 066	Layer<2-1-4>:重启设备成功
18:15:10 077	Layer<2-1-4>:等待Loader开始
18:15:10 758	Layer<2-1-4>:等待Loader成功
18:15:10 792	Layer<2-1-4>:测试设备开始
18:15:10 807	Layer<2-1-4>:测试设备成功
18:15:10 822	Layer<2-1-4>: Download parameter...
18:15:10 914	Layer<2-1-4>: Download uboot...
18:15:11 448	Layer<2-1-4>: Download trust...
18:15:11 979	Layer<2-1-4>: Download misc...
18:15:12 003	Layer<2-1-4>: Download resource...
18:15:12 455	Layer<2-1-4>: Download kernel...
18:15:14 814	Layer<2-1-4>: Download boot...
18:15:15 094	Layer<2-1-4>: Download recovery...
18:15:16 055	Layer<2-1-4>: DownloadSparse system...
18:17:27 791	Layer<2-1-4>: RunProc is ending, ret=1
18:35:44 495	Info:RunExe->cmd=netstat -ano
18:35:46 355	ERROR:GetAdbSerialno->AdbCreateInterfaceByName failed,err=5,dev=\\?\USB#VID_2207&PID_0011&MI_01#7&2520BE34&0&0001#{f72fe0d4-cbcb-407d-8814-9ed673d0dd6b}!
18:35:46 364	ERROR:AdbToRockusb->GetAdbSerialno failed!
18:35:46 369	Info:RunExe->cmd="\\192.168.1.186\rp-share\bill\3399\sdk-7.1\RKTools\windows\AndroidTool\AndroidTool_Release_v2.42\bin\adb.exe" reboot bootloader
18:35:56 397	Layer<2-1-4>:测试设备开始
18:35:56 407	Layer<2-1-4>:测试设备成功
18:35:56 418	Layer<2-1-4>: Download resource...
18:35:56 558	Layer<2-1-4>: Download kernel...
18:35:58 942	Layer<2-1-4>: RunProc is ending, ret=1
19:05:13 380	Info:RunExe->cmd=netstat -ano
19:05:15 045	ERROR:GetAdbSerialno->AdbCreateInterfaceByName failed,err=5,dev=\\?\USB#VID_2207&PID_0011&MI_01#7&2520BE34&0&0001#{f72fe0d4-cbcb-407d-8814-9ed673d0dd6b}!
19:05:15 051	ERROR:AdbToRockusb->GetAdbSerialno failed!
19:05:15 057	Info:RunExe->cmd="\\192.168.1.186\rp-share\bill\3399\sdk-7.1\RKTools\windows\AndroidTool\AndroidTool_Release_v2.42\bin\adb.exe" reboot bootloader
19:05:21 880	Layer<2-1-4>:测试设备开始
19:05:21 897	Layer<2-1-4>:测试设备成功
19:05:21 908	Layer<2-1-4>: Download resource...
19:05:22 037	Layer<2-1-4>: Download kernel...
19:05:24 355	Layer<2-1-4>: RunProc is ending, ret=1
20:31:27 872	Layer<2-1-4>:测试设备开始
20:31:27 934	Layer<2-1-4>:测试设备成功
20:31:27 949	Layer<2-1-4>: Download resource...
20:31:28 083	Layer<2-1-4>: Download kernel...
20:31:30 458	Layer<2-1-4>: RunProc is ending, ret=1
