09:46:32 109	Error:EnumerateHubPorts-->DeviceIoControl failed,err=0x48f
10:06:19 067	<LAYER 1-1-2-4> ERROR:GetDemoDrive-->QueryVolume failed
10:06:33 246	Error:EnumerateHubPorts-->DeviceIoControl failed,err=0x48f
10:08:44 065	Error:EnumerateHubPorts-->DeviceIoControl failed,err=0x48f
10:08:44 318	<LAYER 1-1-2-4> ERROR:GetDemoDrive-->QueryVolume failed
10:25:56 904	Error:EnumerateHubPorts-->DeviceIoControl failed,err=0x48f
10:31:12 051	Error:EnumerateHubPorts-->DeviceIoControl failed,err=0x48f
10:31:33 949	Error:EnumerateHubPorts-->DeviceIoControl failed,err=0x48f
10:31:49 281	ERROR:Search-->CM_Get_Child failed(0xd)
10:31:49 296	<LAYER 1-1-2-4> ERROR:GetDrive-->CM_Get_Child(instance:7764) failed,err=0xd
10:31:49 823	<LAYER 1-1-2-4> ERROR:GetDrive-->CM_Get_Child(instance:7764) failed,err=0xd
10:31:50 328	<LAYER 1-1-2-4> ERROR:GetDrive-->CM_Get_Child(instance:7764) failed,err=0xd
10:43:25 830	Error:EnumerateHubPorts-->DeviceIoControl failed,err=0x48f
10:44:08 560	Error:EnumerateHubPorts-->DeviceIoControl failed,err=0x48f
10:48:42 199	Error:EnumerateHubPorts-->DeviceIoControl failed,err=0x48f
11:11:03 274	<LAYER 1-1-2-4> ERROR:GetDemoDrive-->QueryVolume failed
11:14:19 470	Error:EnumerateHubPorts-->DeviceIoControl failed,err=0x48f
11:14:42 997	Error:EnumerateHubPorts-->DeviceIoControl failed,err=0x48f
11:42:35 052	Error:EnumerateHubPorts-->DeviceIoControl failed,err=0x48f
11:42:35 278	Error:EnumerateHubPorts-->DeviceIoControl failed,err=0x48f
11:42:57 067	<LAYER 1-1-2-4> ERROR:GetDemoDrive-->QueryVolume failed
11:43:20 191	Error:EnumerateHubPorts-->DeviceIoControl failed,err=0x48f
12:48:43 240	Error:EnumerateHubPorts-->DeviceIoControl failed,err=0x48f
12:48:58 706	<LAYER 1-1-2-4> ERROR:GetDemoDrive-->QueryVolume failed
12:51:38 244	<LAYER 1-1-2-4> ERROR:GetDemoDrive-->QueryVolume failed
12:52:09 410	<LAYER 1-1-2-4> ERROR:GetDemoDrive-->QueryVolume failed
12:53:14 322	<LAYER 1-1-2-4> ERROR:GetDemoDrive-->QueryVolume failed
13:00:05 152	<LAYER 1-1-2-4> ERROR:GetDemoDrive-->QueryVolume failed
13:01:29 468	<LAYER 1-1-2-4> ERROR:GetDemoDrive-->QueryVolume failed
13:02:07 028	Error:EnumerateHubPorts-->DeviceIoControl failed,err=0x48f
13:02:33 402	Error:EnumerateHubPorts-->DeviceIoControl failed,err=0x48f
13:02:33 651	<LAYER 1-1-2-4> ERROR:GetDemoDrive-->QueryVolume failed
13:04:23 536	Error:EnumerateHubPorts-->DeviceIoControl failed,err=0x48f
13:04:47 010	<LAYER 1-1-2-4> ERROR:GetDemoDrive-->QueryVolume failed
13:05:55 892	<LAYER 1-1-2-4> ERROR:GetDemoDrive-->QueryVolume failed
13:35:26 667	Error:EnumerateHubPorts-->DeviceIoControl failed,err=0x48f
13:35:51 002	Error:EnumerateHubPorts-->DeviceIoControl failed,err=0x48f
13:37:51 006	Error:EnumerateHubPorts-->DeviceIoControl failed,err=0x48f
13:38:36 870	<LAYER 1-1-2-4> ERROR:GetDemoDrive-->QueryVolume failed
13:40:33 322	Error:EnumerateHubPorts-->DeviceIoControl failed,err=0x48f
13:41:56 804	<LAYER 1-1-2-4> ERROR:GetProperty-->SetupDiGetDeviceRegistryProperty failed,GetlastError(0xe000020b)
13:41:56 812	<LAYER 1-1-2-4> ERROR:GetDemoDrive-->Get PDOName failed
13:52:15 740	<LAYER 1-1-2-4> ERROR:GetProperty-->SetupDiGetDeviceRegistryProperty failed,GetlastError(0xe000020b)
13:52:15 752	<LAYER 1-1-2-4> ERROR:GetDemoDrive-->Get PDOName failed
13:52:39 554	<LAYER 1-1-2-4> ERROR:GetProperty-->SetupDiGetDeviceRegistryProperty failed,GetlastError(0xe000020b)
13:52:39 563	<LAYER 1-1-2-4> ERROR:GetDemoDrive-->Get PDOName failed
13:56:46 363	Error:EnumerateHubPorts-->DeviceIoControl failed,err=0x48f
13:56:46 620	<LAYER 1-1-2-4> ERROR:GetDemoDrive-->QueryVolume failed
13:57:04 501	<LAYER 1-1-2-4> ERROR:GetProperty-->SetupDiGetDeviceRegistryProperty failed,GetlastError(0xe000020b)
13:57:04 517	<LAYER 1-1-2-4> ERROR:GetDemoDrive-->Get PDOName failed
14:01:01 301	Error:EnumerateHubPorts-->DeviceIoControl failed,err=0x48f
14:01:01 574	<LAYER 1-1-2-4> ERROR:GetDemoDrive-->QueryVolume failed
14:02:14 663	Error:EnumerateHubPorts-->DeviceIoControl failed,err=0x48f
14:02:14 929	<LAYER 1-1-2-4> ERROR:GetDemoDrive-->QueryVolume failed
14:03:19 137	<LAYER 1-1-2-4> ERROR:GetDemoDrive-->QueryVolume failed
14:14:07 138	Error:EnumerateHubPorts-->DeviceIoControl failed,err=0x48f
14:46:30 789	Error:EnumerateHubPorts-->DeviceIoControl failed,err=0x48f
14:46:45 395	Error:EnumerateHubPorts-->DeviceIoControl failed,err=0x48f
14:46:45 642	<LAYER 1-1-2-4> ERROR:GetDemoDrive-->QueryVolume failed
14:49:08 674	Error:EnumerateHubPorts-->DeviceIoControl failed,err=0x48f
14:49:08 908	<LAYER 1-1-2-4> ERROR:GetDemoDrive-->QueryVolume failed
14:58:14 548	Error:EnumerateHubPorts-->DeviceIoControl failed,err=0x48f
14:58:31 300	<LAYER 1-1-2-4> ERROR:GetDemoDrive-->QueryVolume failed
15:09:16 318	Error:EnumerateHubPorts-->DeviceIoControl failed,err=0x48f
15:09:30 253	<LAYER 1-1-2-4> ERROR:GetProperty-->SetupDiGetDeviceRegistryProperty failed,GetlastError(0xe000020b)
15:09:30 262	<LAYER 1-1-2-4> ERROR:GetDemoDrive-->Get PDOName failed
15:13:58 461	<LAYER 1-1-2-4> ERROR:GetDrive-->CM_Get_Child(instance:7844) failed,err=0xd
15:15:08 817	<LAYER 1-1-2-4> ERROR:GetDemoDrive-->QueryVolume failed
15:23:36 644	<LAYER 1-1-2-4> ERROR:GetDemoDrive-->QueryVolume failed
15:23:54 158	Error:EnumerateHubPorts-->DeviceIoControl failed,err=0x48f
15:24:12 516	<LAYER 1-1-2-4> ERROR:GetDemoDrive-->QueryVolume failed
15:25:38 266	<LAYER 1-1-2-4> ERROR:GetDemoDrive-->QueryVolume failed
15:25:55 883	Error:EnumerateHubPorts-->DeviceIoControl failed,err=0x48f
15:25:56 133	<LAYER 1-1-2-4> ERROR:GetDemoDrive-->QueryVolume failed
15:33:45 601	<LAYER 1-1-2-4> ERROR:GetDemoDrive-->QueryVolume failed
15:40:20 817	<LAYER 1-1-2-4> ERROR:GetDemoDrive-->QueryVolume failed
15:49:17 020	Error:EnumerateHubPorts-->DeviceIoControl failed,err=0x48f
15:49:17 259	<LAYER 1-1-2-4> ERROR:GetDemoDrive-->QueryVolume failed
15:49:36 792	<LAYER 1-1-2-4> ERROR:GetDemoDrive-->QueryVolume failed
15:50:29 702	Error:EnumerateHubPorts-->DeviceIoControl failed,err=0x48f
15:50:29 941	<LAYER 1-1-2-4> ERROR:GetDemoDrive-->QueryVolume failed
15:52:07 233	<LAYER 1-1-2-4> ERROR:GetDemoDrive-->QueryVolume failed
16:01:18 229	ERROR:Search-->CM_Get_Child failed(0xd)
16:01:18 250	<LAYER 1-1-2-4> ERROR:GetDrive-->CM_Get_Child(instance:7764) failed,err=0xd
16:01:18 755	<LAYER 1-1-2-4> ERROR:GetDrive-->CM_Get_Child(instance:7764) failed,err=0xd
16:01:19 258	<LAYER 1-1-2-4> ERROR:GetDrive-->CM_Get_Child(instance:7764) failed,err=0xd
16:01:42 984	<LAYER 1-1-2-4> ERROR:GetDemoDrive-->QueryVolume failed
16:02:30 782	Error:EnumerateHubPorts-->DeviceIoControl failed,err=0x48f
16:06:06 933	Error:EnumerateHubPorts-->DeviceIoControl failed,err=0x48f
16:06:07 169	<LAYER 1-1-2-4> ERROR:GetDemoDrive-->QueryVolume failed
16:40:42 733	Error:EnumerateHubPorts-->DeviceIoControl failed,err=0x48f
16:40:42 993	<LAYER 1-1-2-4> ERROR:GetDemoDrive-->QueryVolume failed
16:41:08 151	Error:EnumerateHubPorts-->DeviceIoControl failed,err=0x48f
16:41:08 402	<LAYER 1-1-2-4> ERROR:GetDemoDrive-->QueryVolume failed
16:43:36 887	<LAYER 1-1-2-4> ERROR:GetDemoDrive-->QueryVolume failed
16:44:33 044	Error:EnumerateHubPorts-->DeviceIoControl failed,err=0x48f
16:46:10 732	<LAYER 1-1-2-4> ERROR:GetDemoDrive-->QueryVolume failed
16:49:11 630	Error:EnumerateHubPorts-->DeviceIoControl failed,err=0x48f
16:53:27 461	Error:EnumerateHubPorts-->DeviceIoControl failed,err=0x48f
16:53:27 709	<LAYER 1-1-2-4> ERROR:GetDemoDrive-->QueryVolume failed
16:57:26 732	<LAYER 1-1-2-4> ERROR:GetDemoDrive-->QueryVolume failed
17:01:28 211	<LAYER 1-1-2-4> ERROR:GetDemoDrive-->QueryVolume failed
17:02:36 003	Error:EnumerateHubPorts-->DeviceIoControl failed,err=0x48f
17:03:05 923	<LAYER 1-1-2-4> ERROR:GetDemoDrive-->QueryVolume failed
17:03:11 774	Error:EnumerateHubPorts-->DeviceIoControl failed,err=0x48f
17:03:32 921	<LAYER 1-1-2-4> ERROR:GetDemoDrive-->QueryVolume failed
17:05:41 162	<LAYER 1-1-2-4> ERROR:GetDemoDrive-->QueryVolume failed
17:08:37 222	<LAYER 1-1-2-4> ERROR:GetDemoDrive-->QueryVolume failed
17:09:39 258	<LAYER 1-1-2-4> ERROR:GetDemoDrive-->QueryVolume failed
17:14:48 112	<LAYER 1-1-2-4> ERROR:GetProperty-->SetupDiGetDeviceRegistryProperty failed,GetlastError(0xe000020b)
17:14:48 129	<LAYER 1-1-2-4> ERROR:GetDemoDrive-->Get PDOName failed
17:16:14 832	<LAYER 1-1-2-4> ERROR:GetDemoDrive-->QueryVolume failed
17:19:12 580	Error:EnumerateHubPorts-->DeviceIoControl failed,err=0x48f
17:32:15 613	<LAYER 1-1-2-4> ERROR:GetDemoDrive-->QueryVolume failed
17:32:27 450	Error:EnumerateHubPorts-->DeviceIoControl failed,err=0x48f
17:50:21 153	<LAYER 1-1-2-4> ERROR:GetDemoDrive-->QueryVolume failed
17:50:35 091	Error:EnumerateHubPorts-->DeviceIoControl failed,err=0x48f
17:50:49 359	<LAYER 1-1-2-4> ERROR:GetDemoDrive-->QueryVolume failed
17:51:10 373	<LAYER 1-1-2-4> ERROR:GetDemoDrive-->QueryVolume failed
17:51:42 343	Error:EnumerateHubPorts-->DeviceIoControl failed,err=0x48f
17:52:03 994	<LAYER 1-1-2-4> ERROR:GetDrive-->CM_Get_Child(instance:7844) failed,err=0xd
17:53:59 625	Error:EnumerateHubPorts-->DeviceIoControl failed,err=0x48f
17:54:26 494	Error:EnumerateHubPorts-->DeviceIoControl failed,err=0x48f
17:54:26 753	<LAYER 1-1-2-4> ERROR:GetDemoDrive-->QueryVolume failed
17:56:02 993	<LAYER 1-1-2-4> ERROR:GetDemoDrive-->QueryVolume failed
18:02:04 078	Error:EnumerateHubPorts-->DeviceIoControl failed,err=0x48f
18:02:43 732	<LAYER 1-1-2-4> ERROR:GetDemoDrive-->QueryVolume failed
18:03:04 171	Error:EnumerateHubPorts-->DeviceIoControl failed,err=0x48f
18:03:04 424	<LAYER 1-1-2-4> ERROR:GetDemoDrive-->QueryVolume failed
18:05:23 248	<LAYER 1-1-2-4> ERROR:GetProperty-->SetupDiGetDeviceRegistryProperty failed,GetlastError(0xe000020b)
18:05:23 261	<LAYER 1-1-2-4> ERROR:GetDemoDrive-->Get PDOName failed
18:05:51 385	Error:EnumerateHubPorts-->DeviceIoControl failed,err=0x48f
18:05:51 628	Error:EnumerateHubPorts-->DeviceIoControl failed,err=0x48f
18:46:13 063	Error:EnumerateHubPorts-->DeviceIoControl failed,err=0x48f
18:46:27 864	Error:EnumerateHubPorts-->DeviceIoControl failed,err=0x48f
18:46:28 102	<LAYER 1-1-2-4> ERROR:GetDemoDrive-->QueryVolume failed
18:47:20 034	<LAYER 1-1-2-4> ERROR:GetDemoDrive-->QueryVolume failed
18:49:15 434	Error:EnumerateHubPorts-->DeviceIoControl failed,err=0x48f
18:49:15 700	<LAYER 1-1-2-4> ERROR:GetDemoDrive-->QueryVolume failed
18:49:40 510	Error:EnumerateHubPorts-->DeviceIoControl failed,err=0x48f
18:49:40 743	<LAYER 1-1-2-4> ERROR:GetDemoDrive-->QueryVolume failed
18:59:06 828	Error:EnumerateHubPorts-->DeviceIoControl failed,err=0x48f
19:10:12 070	<LAYER 1-1-2-4> ERROR:GetProperty-->SetupDiGetDeviceRegistryProperty failed,GetlastError(0xe000020b)
19:10:12 080	<LAYER 1-1-2-4> ERROR:GetDemoDrive-->Get PDOName failed
19:11:51 751	Error:EnumerateHubPorts-->DeviceIoControl failed,err=0x48f
19:14:27 824	Error:EnumerateHubPorts-->DeviceIoControl failed,err=0x48f
19:14:40 382	<LAYER 1-1-2-4> ERROR:GetDemoDrive-->QueryVolume failed
19:15:14 333	<LAYER 1-1-2-4> ERROR:GetDemoDrive-->QueryVolume failed
19:19:40 546	Error:EnumerateHubPorts-->DeviceIoControl failed,err=0x48f
19:19:57 376	<LAYER 1-1-2-4> ERROR:GetDemoDrive-->QueryVolume failed
19:23:59 682	Error:EnumerateHubPorts-->DeviceIoControl failed,err=0x48f
19:24:14 466	<LAYER 1-1-2-4> ERROR:GetDemoDrive-->QueryVolume failed
19:25:01 677	Error:EnumerateHubPorts-->DeviceIoControl failed,err=0x48f
19:25:01 925	<LAYER 1-1-2-4> ERROR:GetDemoDrive-->QueryVolume failed
19:25:44 723	<LAYER 1-1-2-4> ERROR:GetDemoDrive-->QueryVolume failed
19:26:57 309	<LAYER 1-1-2-4> ERROR:GetDemoDrive-->QueryVolume failed
